^C:\USERS\ADMINISTRATOR\DOCUMENTS\QINT_1212454_1212439\QINT_1212454_1212439\QINT_1212454_1212439\MAIN.CPP
/c /ZI /nologo /W3 /WX- /sdl /Od /Oy- /D WIN32 /D _DEBUG /D _CONSOLE /D _LIB /D _UNICODE /D UNICODE /Gm /EHsc /RTC1 /MDd /GS /fp:precise /Zc:wchar_t /Zc:forScope /Fo"DEBUG\\" /Fd"DEBUG\VC120.PDB" /Gd /TP /analyze- C:\USERS\ADMINISTRATOR\DOCUMENTS\QINT_1212454_1212439\QINT_1212454_1212439\QINT_1212454_1212439\MAIN.CPP
^C:\USERS\ADMINISTRATOR\DOCUMENTS\QINT_1212454_1212439\QINT_1212454_1212439\QINT_1212454_1212439\FILE.CPP
/c /ZI /nologo /W3 /WX- /sdl /Od /Oy- /D WIN32 /D _DEBUG /D _CONSOLE /D _LIB /D _UNICODE /D UNICODE /Gm /EHsc /RTC1 /MDd /GS /fp:precise /Zc:wchar_t /Zc:forScope /Fo"DEBUG\\" /Fd"DEBUG\VC120.PDB" /Gd /TP /analyze- C:\USERS\ADMINISTRATOR\DOCUMENTS\QINT_1212454_1212439\QINT_1212454_1212439\QINT_1212454_1212439\FILE.CPP
^C:\USERS\KAES\DESKTOP\KTMT\DOAN\SOURCE\QINT_1212454_1212439\QINT_1212454_1212439\MAIN.CPP
/c /ZI /nologo /W3 /WX- /sdl /Od /Oy- /D WIN32 /D _DEBUG /D _CONSOLE /D _LIB /D _UNICODE /D UNICODE /Gm /EHsc /RTC1 /MDd /GS /fp:precise /Zc:wchar_t /Zc:forScope /Fo"DEBUG\\" /Fd"DEBUG\VC120.PDB" /Gd /TP /analyze- C:\USERS\KAES\DESKTOP\KTMT\DOAN\SOURCE\QINT_1212454_1212439\QINT_1212454_1212439\MAIN.CPP
